==============================================================================
Suites                                                                        
==============================================================================
Suites.LoginTest                                                              
==============================================================================
LoginTest                                                             | PASS |
------------------------------------------------------------------------------
Suites.LoginTest                                                      | PASS |
1 critical test, 1 passed, 0 failed
1 test total, 1 passed, 0 failed
==============================================================================
Suites                                                                | PASS |
1 critical test, 1 passed, 0 failed
1 test total, 1 passed, 0 failed
==============================================================================
Output:  C:\Users\ramd\PycharmProjects\Automation\pabot_results\Suites.LoginTest\output.xml
